…
```
[1] 336776     19
```

```r
flights
```

```
# A tibble: 336,776 x 19
    year month   day dep_time sched_dep_time dep_delay arr_time
   <int> <int> <int>    <int>          <int>     <dbl>    <int>
 1  2013     1     1      517            515         2      830
 2  2013     1     1      533            529         4      850
 3  2013     1     1      542            540         2      923
 4  2013     1     1      544            545        -1     1004
 5  2013     1     1      554            600        -6      812
 6  2013     1     1      554            558        -4      740
 7  2013     1     1      555            600        -5      913
 8  2013     1     1      557            600        -3      709
 9  2013     1     1      557            600        -3      838
10  2013     1     1      558            600        -2      753
# ... with 336,766 more rows, and 12 more variables: sched_arr_time <int>,
#   arr_delay <dbl>, carrier <chr>, flight <int>, tailnum <chr>,
#   origin <chr>, dest <chr>, air_time <dbl>, distance <dbl>, hour <dbl>,
#   minute <dbl>, time_hour <dttm>
```
…
- `filter()` permite fazer um *subset* das linhas de um data.frame;

- Como todos os verbos simples de **dplyr**, o primeiro argumento será um *tibble* (ou data.frame);
- O segundo argumento e os subsequentes se referem a variáveis dentro do data.frame, em que se selecionam as linhas onde a expressão é verdadeira (TRUE).

- Vamos selecionar todos os voos em 1º de janeiro:


```r
filter(flights, month == 1, day == 1)
```

```
# A tibble: 842 x 19
    year month   day dep_time sched_dep_time dep_delay arr_time
   <int> <int> <int>    <int>          <int>     <dbl>    <int>
 1  2013     1     1      517            515         2      830
 2  2013     1     1      533            529         4      850
 3  2013     1     1      542            540         2      923
 4  2013     1     1      544            545        -1     1004
 5  2013     1     1      554            600        -6      812
 6  2013     1     1      554            558        -4      740
 7  2013     1     1      555            600        -5      913
 8  2013     1     1      557            600        -3      709
 9  2013     1     1      557            600        -3      838
10  2013     1     1      558            600        -2      753
# ... with 832 more rows, and 12 more variables: sched_arr_time <int>,
#   arr_delay <dbl>, carrier <chr>, flight <int>, tailnum <chr>,
#   origin <chr>, dest <chr>, air_time <dbl>, distance <dbl>, hour <dbl>,
#   minute <dbl>, time_hour <dttm>
```
…
- `arrange()` funciona de modo semelhante a *filter*, mas ao invés de filtrar e selecionar linhas, ele apenas as reordena de acordo com alguma condição que passamos;

- Essa função recebe um data.frame (ou tibble) e um conjunto de *column names* pelo qual vai ordenar;

<!-- - Se você fornecer mais de um nome de coluna, cada coluna adicional passada será usada como critério de desempate. -->


```r
arrange(flights, year, month, day)
```

```
# A tibble: 336,776 x 19
    year month   day dep_time sched_dep_time dep_delay arr_time
   <int> <int> <int>    <int>          <int>     <dbl>    <int>
 1  2013     1     1      517            515         2      830
 2  2013     1     1      533            529         4      850
 3  2013     1     1      542            540         2      923
 4  2013     1     1      544            545        -1     1004
 5  2013     1     1      554            600        -6      812
 6  2013     1     1      554            558        -4      740
 7  2013     1     1      555            600        -5      913
 8  2013     1     1      557            600        -3      709
 9  2013     1     1      557            600        -3      838
10  2013     1     1      558            600        -2      753
# ... with 336,766 more rows, and 12 more variables: sched_arr_time <int>,
#   arr_delay <dbl>, carrier <chr>, flight <int>, tailnum <chr>,
#   origin <chr>, dest <chr>, air_time <dbl>, distance <dbl>, hour <dbl>,
#   minute <dbl>, time_hour <dttm>
```
…
- Geralmente trabalhamos com *datasets* com muitas colunas, mas somente algumas poucas são de nosso interesse;

- `select()` nos permite rapidamente focar num subconjunto dos dados;

- O melhor é que podemos utilizar operações - que normalmente só funcionam com as posições das colunas - direto nos nomes das variáveis.


```r
# Select columns by name
select(flights, year, month, day)
```

```
# A tibble: 336,776 x 3
    year month   day
   <int> <int> <int>
 1  2013     1     1
 2  2013     1     1
 3  2013     1     1
 4  2013     1     1
 5  2013     1     1
 6  2013     1     1
 7  2013     1     1
 8  2013     1     1
 9  2013     1     1
10  2013     1     1
# ... with 336,766 more rows
```

***


```r
# Select all columns between year and day (inclusive)
select(flights, year:day)
```

```
# A tibble: 336,776 x 3
    year month   day
   <int> <int> <int>
 1  2013     1     1
 2  2013     1     1
 3  2013     1     1
 4  2013     1     1
 5  2013     1     1
 6  2013     1     1
 7  2013     1     1
 8  2013     1     1
 9  2013     1     1
10  2013     1     1
# ... with 336,766 more rows
```

```r
# Select all columns except those from year to day (inclusive)
select(flights, -(year:day))
```

```
# A tibble: 336,776 x 16
   dep_time sched_dep_time dep_delay arr_time sched_arr_time arr_delay
      <int>          <int>     <dbl>    <int>          <int>     <dbl>
 1      517            515         2      830            819        11
 2      533            529         4      850            830        20
 3      542            540         2      923            850        33
 4      544            545        -1     1004           1022       -18
 5      554            600        -6      812            837       -25
 6      554            558        -4      740            728        12
 7      555            600        -5      913            854        19
 8      557            600        -3      709            723       -14
 9      557            600        -3      838            846        -8
10      558            600        -2      753            745         8
# ... with 336,766 more rows, and 10 more variables: carrier <chr>,
#   flight <int>, tailnum <chr>, origin <chr>, dest <chr>, air_time <dbl>,
#   distance <dbl>, hour <dbl>, minute <dbl>, time_hour <dttm>
```
…
- Existem *helper functions* que podemos usar dentro de ``select()``;
- São funções que lembram o funcionamento de uma *regular expression* para identificarmos nomes de colunas que atendem a determinado critério;
- São muito úteis com grandes datasets: *starts_with(), ends_with(), matches() e contains()*. 

- `select()` pode ser usada inclusive para renomear variáveis:


```r
select(flights, tail_num = tailnum)
```

```
# A tibble: 336,776 x 1
   tail_num
   <chr>   
 1 N14228  
 2 N24211  
 3 N619AA  
 4 N804JB  
 5 N668DN  
 6 N39463  
 7 N516JB  
 8 N829AS  
 9 N593JB  
10 N3ALAA  
# ... with 336,766 more rows
```

- A nova variável será chamada *tail_num* e receberá toda a informação da original *tailnum*.

***

- No entanto, *select()* "abandona" todas as demais variáveis quando você faz uma renomeação. O melhor então é usar *rename()*:


```r
rename(flights, tail_num = tailnum)
```

```
# A tibble: 336,776 x 19
    year month   day dep_time sched_dep_time dep_delay arr_time
   <int> <int> <int>    <int>          <int>     <dbl>    <int>
 1  2013     1     1      517            515         2      830
 2  2013     1     1      533            529         4      850
 3  2013     1     1      542            540         2      923
 4  2013     1     1      544            545        -1     1004
 5  2013     1     1      554            600        -6      812
 6  2013     1     1      554            558        -4      740
 7  2013     1     1      555            600        -5      913
 8  2013     1     1      557            600        -3      709
 9  2013     1     1      557            600        -3      838
10  2013     1     1      558            600        -2      753
# ... with 336,766 more rows, and 12 more variables: sched_arr_time <int>,
#   arr_delay <dbl>, carrier <chr>, flight <int>, tail_num <chr>,
#   origin <chr>, dest <chr>, air_time <dbl>, distance <dbl>, hour <dbl>,
#   minute <dbl>, time_hour <dttm>
```
…
- Além de selecionar subconjuntos de colunas existentes, é geralmente útil adicionar novas colunas que são funções de colunas já presentes no data.frame;

- Veja um exemplo com `mutate()`:


```r
mutate(flights,
  gain = arr_delay - dep_delay,
  speed = distance / air_time * 60
)
```

```
# A tibble: 336,776 x 21
    year month   day dep_time sched_dep_time dep_delay arr_time
   <int> <int> <int>    <int>          <int>     <dbl>    <int>
 1  2013     1     1      517            515         2      830
 2  2013     1     1      533            529         4      850
 3  2013     1     1      542            540         2      923
 4  2013     1     1      544            545        -1     1004
 5  2013     1     1      554            600        -6      812
 6  2013     1     1      554            558        -4      740
 7  2013     1     1      555            600        -5      913
 8  2013     1     1      557            600        -3      709
 9  2013     1     1      557            600        -3      838
10  2013     1     1      558            600        -2      753
# ... with 336,766 more rows, and 14 more variables: sched_arr_time <int>,
#   arr_delay <dbl>, carrier <chr>, flight <int>, tailnum <chr>,
#   origin <chr>, dest <chr>, air_time <dbl>, distance <dbl>, hour <dbl>,
#   minute <dbl>, time_hour <dttm>, gain <dbl>, speed <dbl>
```
…
- `mutate()` equivale a função `transform()` que vimos no Módulo 1 ...

- ... Mas uma inovação: nos permite nos referir a colunas que acabamos de criar no mesmo comando:


```r
mutate(flights,
  gain = arr_delay - dep_delay,
  gain_per_hour = gain / (air_time / 60)
)
```

```
# A tibble: 336,776 x 21
    year month   day dep_time sched_dep_time dep_delay arr_time
   <int> <int> <int>    <int>          <int>     <dbl>    <int>
 1  2013     1     1      517            515         2      830
 2  2013     1     1      533            529         4      850
 3  2013     1     1      542            540         2      923
 4  2013     1     1      544            545        -1     1004
 5  2013     1     1      554            600        -6      812
 6  2013     1     1      554            558        -4      740
 7  2013     1     1      555            600        -5      913
 8  2013     1     1      557            600        -3      709
 9  2013     1     1      557            600        -3      838
10  2013     1     1      558            600        -2      753
# ... with 336,766 more rows, and 14 more variables: sched_arr_time <int>,
#   arr_delay <dbl>, carrier <chr>, flight <int>, tailnum <chr>,
#   origin <chr>, dest <chr>, air_time <dbl>, distance <dbl>, hour <dbl>,
#   minute <dbl>, time_hour <dttm>, gain <dbl>, gain_per_hour <dbl>
```

***

- Se só nos interessarem as novas varipaveis, usamos *transmute()*:


```r
transmute(flights,
  gain = arr_delay - dep_delay,
  gain_per_hour = gain / (air_time / 60)
)
```

```
# A tibble: 336,776 x 2
    gain gain_per_hour
   <dbl>         <dbl>
 1     9          2.38
 2    16          4.23
 3    31         11.6 
 4   -17         -5.57
 5   -19         -9.83
 6    16          6.4 
 7    24          9.11
 8   -11        -12.5 
 9    -5         -2.14
10    10          4.35
# ... with 336,766 more rows
```
…
No exemplo a seguir, nos separamos o dataset por aviões e então sumarizamos cada avião contando o número de voos (`count = n()`), computando a distância média (`dist = mean(distance, na.rm = TRUE`)) e *arrival delay* (`delay = mean(arr_delay, na.rm = TRUE`)).


```r
by_tailnum <- group_by(flights, tailnum)
delay <- summarise(by_tailnum,
  count = n(),
  dist = mean(distance, na.rm = TRUE),
  delay = mean(arr_delay, na.rm = TRUE))
delay <- filter(delay, count > 20, dist < 2000)
delay
```

```
# A tibble: 2,962 x 4
   tailnum count  dist   delay
   <chr>   <int> <dbl>   <dbl>
 1 N0EGMQ    371  676.   9.98 
 2 N10156    153  758.  12.7  
 3 N102UW     48  536.   2.94 
 4 N103US     46  535.  -6.93 
 5 N104UW     47  535.   1.80 
 6 N10575    289  520.  20.7  
 7 N105UW     45  525.  -0.267
 8 N107US     41  529.  -5.73 
 9 N108UW     60  534.  -1.25 
10 N109UW     48  536.  -2.52 
# ... with 2,952 more rows
```

***


```r
# notar que group_by() nao deixa alterações evidentes
by_tailnum
```

```
# A tibble: 336,776 x 19
# Groups:   tailnum [4,044]
    year month   day dep_time sched_dep_time dep_delay arr_time
   <int> <int> <int>    <int>          <int>     <dbl>    <int>
 1  2013     1     1      517            515         2      830
 2  2013     1     1      533            529         4      850
 3  2013     1     1      542            540         2      923
 4  2013     1     1      544            545        -1     1004
 5  2013     1     1      554            600        -6      812
 6  2013     1     1      554            558        -4      740
 7  2013     1     1      555            600        -5      913
 8  2013     1     1      557            600        -3      709
 9  2013     1     1      557            600        -3      838
10  2013     1     1      558            600        -2      753
# ... with 336,766 more rows, and 12 more variables: sched_arr_time <int>,
#   arr_delay <dbl>, carrier <chr>, flight <int>, tailnum <chr>,
#   origin <chr>, dest <chr>, air_time <dbl>, distance <dbl>, hour <dbl>,
#   minute <dbl>, time_hour <dttm>
```
…
Operações agrupadas - exemplos com os verbos de dplyr (3)
========================================================
incremental: true
class: small-code

Quando agrupamos mais de uma variável, cada *summarise()* que executamos, "raspa"/elimina um nível do agrupamento. Exemplo:

```r
daily <- group_by(flights, year, month, day)
(per_day   <- summarise(daily, flights = n()))
```

```
# A tibble: 365 x 4
# Groups:   year, month [?]
    year month   day flights
   <int> <int> <int>   <int>
 1  2013     1     1     842
 2  2013     1     2     943
 3  2013     1     3     914
 4  2013     1     4     915
 5  2013     1     5     720
 6  2013     1     6     832
 7  2013     1     7     933
 8  2013     1     8     899
 9  2013     1     9     902
10  2013     1    10     932
# ... with 355 more rows
```
…
**select():**

- Uma das melhores carcterísticas de **dplyr** é que podemos nos referir as variáveis de um *tibble* ou data.frame como se fossem variáveis regulares (aquelas que estão no GlobalEnv);

Veja formas equivalentes do ponto de vista de **dplyr**:

```r
select(flights, year)
```

```
# A tibble: 336,776 x 1
    year
   <int>
 1  2013
 2  2013
 3  2013
 4  2013
 5  2013
 6  2013
 7  2013
 8  2013
 9  2013
10  2013
# ... with 336,766 more rows
```

***


```r
select(flights, 1)
```

```
# A tibble: 336,776 x 1
    year
   <int>
 1  2013
 2  2013
 3  2013
 4  2013
 5  2013
 6  2013
 7  2013
 8  2013
 9  2013
10  2013
# ... with 336,766 more rows
```
…
- Se houver uma variável no GlobalEnv(surrounding conetxt - arredondezas) com o mesmo nome de uma coluna de nosso data.frame, você não poderá referenciá-la diretamente:



```r
year <- 5
select(flights, year)
```

```
# A tibble: 336,776 x 1
    year
   <int>
 1  2013
 2  2013
 3  2013
 4  2013
 5  2013
 6  2013
 7  2013
 8  2013
 9  2013
10  2013
# ... with 336,766 more rows
```
…
```r
df <- select(flights, year:dep_time)
```

***

Quando usamos *select()*, os nomes "crus" das colunas representam as próprias colunas do *tibble*. Veja o que acontece quando usamos *mutate()* com uma *string*:

```r
mutate(df, "year", 2)
```

```
# A tibble: 336,776 x 6
    year month   day dep_time `"year"`   `2`
   <int> <int> <int>    <int> <chr>    <dbl>
 1  2013     1     1      517 year         2
 2  2013     1     1      533 year         2
 3  2013     1     1      542 year         2
 4  2013     1     1      544 year         2
 5  2013     1     1      554 year         2
 6  2013     1     1      554 year         2
 7  2013     1     1      555 year         2
 8  2013     1     1      557 year         2
 9  2013     1     1      557 year         2
10  2013     1     1      558 year         2
# ... with 336,766 more rows
```
…
Outros Exemplos com os verbos de dplyr - mutate (2)
========================================================
incremental: true
class: small-code

Se você quisesse criar uma coluna que *year + 10*, não pode utilizar aspas ("year" + 10). Estaria somando 10 a uma string e não aos valores de uma coluna. O correto seria:

```r
mutate(df, year + 10)
```

```
# A tibble: 336,776 x 5
    year month   day dep_time `year + 10`
   <int> <int> <int>    <int>       <dbl>
 1  2013     1     1      517        2023
 2  2013     1     1      533        2023
 3  2013     1     1      542        2023
 4  2013     1     1      544        2023
 5  2013     1     1      554        2023
 6  2013     1     1      554        2023
 7  2013     1     1      555        2023
 8  2013     1     1      557        2023
 9  2013     1     1      557        2023
10  2013     1     1      558        2023
# ... with 336,766 more rows
```

Podemos criar um novo vetor e adicionar ao data.frame com um nome diferente:


```r
var <- seq(1, nrow(df))
mutate(df, new = var)
```

```
# A tibble: 336,776 x 5
    year month   day dep_time   new
   <int> <int> <int>    <int> <int>
 1  2013     1     1      517     1
 2  2013     1     1      533     2
 3  2013     1     1      542     3
 4  2013     1     1      544     4
 5  2013     1     1      554     5
 6  2013     1     1      554     6
 7  2013     1     1      555     7
 8  2013     1     1      557     8
 9  2013     1     1      557     9
10  2013     1     1      558    10
# ... with 336,766 more rows
```
…
**group_by():**

- A função **group_by** tem semântica parecida com a de *mutate()*; 

- Se passarmos uma string como nome das colunas pelas quais desejamos agrupar, ele irá reciclar um vetor apenas com aquela string $\rightarrow$ temos que passar, então, os nomes das colunas sem aspas.


```r
group_by(df, "month")
```

```
# A tibble: 336,776 x 5
# Groups:   "month" [1]
    year month   day dep_time `"month"`
   <int> <int> <int>    <int> <chr>    
 1  2013     1     1      517 month    
 2  2013     1     1      533 month    
 3  2013     1     1      542 month    
 4  2013     1     1      544 month    
 5  2013     1     1      554 month    
 6  2013     1     1      554 month    
 7  2013     1     1      555 month    
 8  2013     1     1      557 month    
 9  2013     1     1      557 month    
10  2013     1     1      558 month    
# ... with 336,766 more rows
```

***


```r
group_by(df, month)
```

```
# A tibble: 336,776 x 4
# Groups:   month [12]
    year month   day dep_time
   <int> <int> <int>    <int>
 1  2013     1     1      517
 2  2013     1     1      533
 3  2013     1     1      542
 4  2013     1     1      544
 5  2013     1     1      554
 6  2013     1     1      554
 7  2013     1     1      555
 8  2013     1     1      557
 9  2013     1     1      557
10  2013     1     1      558
# ... with 336,766 more rows
```
…
