…
- Mesmo com **dplyr** (**dbplyr**), nós ainda vamos fazer algumas iterações e tentativas até descobrir o que realmente vamos precisar dos dados, mas será de forma muito mais rápida;

- Uma vez que soubermos, podemos usar **collect()** para trazer todos os dados em um *tibble* (local) em nossa máquina:


```r
tailnum_delay <- tailnum_delay_db %>% collect()
tailnum_delay
```

```
# A tibble: 1,201 x 3
   tailnum delay     n
   <chr>   <dbl> <int>
 1 N11119   30.3   148
 2 N16919   29.9   251
 3 N14998   27.9   230
 4 N15910   27.6   280
 5 N13123   26.0   121
 6 N11192   25.9   154
 7 N14950   25.3   219
 8 N21130   25.0   126
 9 N24128   24.9   129
10 N22971   24.7   230
# ... with 1,191 more rows
```
…
