…
- Vamos dividir o data.frame flights em dois e depois tentaremos juntar os dois com base no nome da cia aérea:


```r
library(dplyr)
library("nycflights13")
# Drop unimportant variables so it's easier to understand the join results.
flights2 <- flights %>% select(year:day, hour, origin, dest, tailnum, carrier)

flights2 %>% 
  left_join(airlines)
```

```
# A tibble: 336,776 x 9
    year month   day  hour origin dest  tailnum carrier name              
   <int> <int> <int> <dbl> <chr>  <chr> <chr>   <chr>   <chr>             
 1  2013     1     1     5 EWR    IAH   N14228  UA      United Air Lines …
 2  2013     1     1     5 LGA    IAH   N24211  UA      United Air Lines …
 3  2013     1     1     5 JFK    MIA   N619AA  AA      American Airlines…
 4  2013     1     1     5 JFK    BQN   N804JB  B6      JetBlue Airways   
 5  2013     1     1     6 LGA    ATL   N668DN  DL      Delta Air Lines I…
 6  2013     1     1     5 EWR    ORD   N39463  UA      United Air Lines …
 7  2013     1     1     6 EWR    FLL   N516JB  B6      JetBlue Airways   
 8  2013     1     1     6 LGA    IAD   N829AS  EV      ExpressJet Airlin…
 9  2013     1     1     6 JFK    MCO   N593JB  B6      JetBlue Airways   
10  2013     1     1     6 LGA    ORD   N3ALAA  AA      American Airlines…
# ... with 336,766 more rows
```
…
- Controlar o **match** é controlar o parâmetro **by**!

- Vejamos as maneiras de como especificar o parâmetro *by*:

  - **NULL** é o *default*: **dplyr** vai usar todas as variáveis comuns às duas tabelas(**natural join**)
  
  

```r
flights2 %>% left_join(weather)
```

```
# A tibble: 336,776 x 18
    year month   day  hour origin dest  tailnum carrier  temp  dewp humid
   <dbl> <dbl> <int> <dbl> <chr>  <chr> <chr>   <chr>   <dbl> <dbl> <dbl>
 1  2013     1     1     5 EWR    IAH   N14228  UA       39.0  28.0  64.4
 2  2013     1     1     5 LGA    IAH   N24211  UA       39.9  25.0  54.8
 3  2013     1     1     5 JFK    MIA   N619AA  AA       39.0  27.0  61.6
 4  2013     1     1     5 JFK    BQN   N804JB  B6       39.0  27.0  61.6
 5  2013     1     1     6 LGA    ATL   N668DN  DL       39.9  25.0  54.8
 6  2013     1     1     5 EWR    ORD   N39463  UA       39.0  28.0  64.4
 7  2013     1     1     6 EWR    FLL   N516JB  B6       37.9  28.0  67.2
 8  2013     1     1     6 LGA    IAD   N829AS  EV       39.9  25.0  54.8
 9  2013     1     1     6 JFK    MCO   N593JB  B6       37.9  27.0  64.3
10  2013     1     1     6 LGA    ORD   N3ALAA  AA       39.9  25.0  54.8
# ... with 336,766 more rows, and 7 more variables: wind_dir <dbl>,
#   wind_speed <dbl>, wind_gust <dbl>, precip <dbl>, pressure <dbl>,
#   visib <dbl>, time_hour <dttm>
```
…
- Um vetor de caracteres, **by = "x"**:
  
  - opera como se fosse um *natural join*, mas usa somente algumas das variáveis comuns. 
  
  <!-- Por exemplo, *flights* e *planes* possuem uma variável *year*, mas elas significam coisas diferentes em cada data.frame. Então, queremos especificar uma coluna que sabemos que significa a mesma coisa em ambos os data.frames e que possa servir de índice para o *matching*. Vamos usar *tailnum* que é o número do avião. -->


```r
flights2 %>% left_join(planes, by = "tailnum")
```

```
# A tibble: 336,776 x 16
   year.x month   day  hour origin dest  tailnum carrier year.y type 
    <int> <int> <int> <dbl> <chr>  <chr> <chr>   <chr>    <int> <chr>
 1   2013     1     1     5 EWR    IAH   N14228  UA        1999 Fixe…
 2   2013     1     1     5 LGA    IAH   N24211  UA        1998 Fixe…
 3   2013     1     1     5 JFK    MIA   N619AA  AA        1990 Fixe…
 4   2013     1     1     5 JFK    BQN   N804JB  B6        2012 Fixe…
 5   2013     1     1     6 LGA    ATL   N668DN  DL        1991 Fixe…
 6   2013     1     1     5 EWR    ORD   N39463  UA        2012 Fixe…
 7   2013     1     1     6 EWR    FLL   N516JB  B6        2000 Fixe…
 8   2013     1     1     6 LGA    IAD   N829AS  EV        1998 Fixe…
 9   2013     1     1     6 JFK    MCO   N593JB  B6        2004 Fixe…
10   2013     1     1     6 LGA    ORD   N3ALAA  AA          NA <NA> 
# ... with 336,766 more rows, and 6 more variables: manufacturer <chr>,
#   model <chr>, engines <int>, seats <int>, speed <int>, engine <chr>
```
…
- um vetor de caracteres com nomes: **by = c("x" = "y")**. 

  - Isto vai fazer o *match* da variável *x* na tabela *a* com a variável *y* na tabela *b*; 
  - As variáveis da tabela de origem serão usadas no output.

Cada voo tem uma origem e um aeroporto de destino. Então precisamos especificar qual dessas variáveis do dataset *flight* queremos fazer o *match* com a coluna *faa* do dataset *airports*.


```r
# ??airports
airports
```

```
# A tibble: 1,458 x 8
   faa   name                   lat    lon   alt    tz dst   tzone        
   <chr> <chr>                <dbl>  <dbl> <int> <dbl> <chr> <chr>        
 1 04G   Lansdowne Airport     41.1  -80.6  1044    -5 A     America/New_…
 2 06A   Moton Field Municip…  32.5  -85.7   264    -6 A     America/Chic…
 3 06C   Schaumburg Regional   42.0  -88.1   801    -6 A     America/Chic…
 4 06N   Randall Airport       41.4  -74.4   523    -5 A     America/New_…
 5 09J   Jekyll Island Airpo…  31.1  -81.4    11    -5 A     America/New_…
 6 0A9   Elizabethton Munici…  36.4  -82.2  1593    -5 A     America/New_…
 7 0G6   Williams County Air…  41.5  -84.5   730    -5 A     America/New_…
 8 0G7   Finger Lakes Region…  42.9  -76.8   492    -5 A     America/New_…
 9 0P2   Shoestring Aviation…  39.8  -76.6  1000    -5 U     America/New_…
10 0S9   Jefferson County In…  48.1 -123.    108    -8 A     America/Los_…
# ... with 1,448 more rows
```


***


```r
# ??flights
flights2 %>% left_join(airports, c("dest" = "faa"))
```

```
# A tibble: 336,776 x 15
    year month   day  hour origin dest  tailnum carrier name    lat   lon
   <int> <int> <int> <dbl> <chr>  <chr> <chr>   <chr>   <chr> <dbl> <dbl>
 1  2013     1     1     5 EWR    IAH   N14228  UA      Geor…  30.0 -95.3
 2  2013     1     1     5 LGA    IAH   N24211  UA      Geor…  30.0 -95.3
 3  2013     1     1     5 JFK    MIA   N619AA  AA      Miam…  25.8 -80.3
 4  2013     1     1     5 JFK    BQN   N804JB  B6      <NA>   NA    NA  
 5  2013     1     1     6 LGA    ATL   N668DN  DL      Hart…  33.6 -84.4
 6  2013     1     1     5 EWR    ORD   N39463  UA      Chic…  42.0 -87.9
 7  2013     1     1     6 EWR    FLL   N516JB  B6      Fort…  26.1 -80.2
 8  2013     1     1     6 LGA    IAD   N829AS  EV      Wash…  38.9 -77.5
 9  2013     1     1     6 JFK    MCO   N593JB  B6      Orla…  28.4 -81.3
10  2013     1     1     6 LGA    ORD   N3ALAA  AA      Chic…  42.0 -87.9
# ... with 336,766 more rows, and 4 more variables: alt <int>, tz <dbl>,
#   dst <chr>, tzone <chr>
```


```r
flights2 %>% left_join(airports, c("origin" = "faa"))
```

```
# A tibble: 336,776 x 15
    year month   day  hour origin dest  tailnum carrier name    lat   lon
   <int> <int> <int> <dbl> <chr>  <chr> <chr>   <chr>   <chr> <dbl> <dbl>
 1  2013     1     1     5 EWR    IAH   N14228  UA      Newa…  40.7 -74.2
 2  2013     1     1     5 LGA    IAH   N24211  UA      La G…  40.8 -73.9
 3  2013     1     1     5 JFK    MIA   N619AA  AA      John…  40.6 -73.8
 4  2013     1     1     5 JFK    BQN   N804JB  B6      John…  40.6 -73.8
 5  2013     1     1     6 LGA    ATL   N668DN  DL      La G…  40.8 -73.9
 6  2013     1     1     5 EWR    ORD   N39463  UA      Newa…  40.7 -74.2
 7  2013     1     1     6 EWR    FLL   N516JB  B6      Newa…  40.7 -74.2
 8  2013     1     1     6 LGA    IAD   N829AS  EV      La G…  40.8 -73.9
 9  2013     1     1     6 JFK    MCO   N593JB  B6      John…  40.6 -73.8
10  2013     1     1     6 LGA    ORD   N3ALAA  AA      La G…  40.8 -73.9
# ... with 336,766 more rows, and 4 more variables: alt <int>, tz <dbl>,
#   dst <chr>, tzone <chr>
```
…
- Esses joins são muito úteis para identificar "descasamentos" entre tabelas:

  - por exemplo, há diversos voos no dataset *flights* que não possuem correspondências com base no *tailnum* no dataset *planes*:


```r
library("nycflights13")
flights %>% 
  anti_join(planes, by = "tailnum") %>% 
  count(tailnum, sort = TRUE)
```

```
# A tibble: 722 x 2
   tailnum     n
   <chr>   <int>
 1 <NA>     2512
 2 N725MQ    575
 3 N722MQ    513
 4 N723MQ    507
 5 N713MQ    483
 6 N735MQ    396
 7 N0EGMQ    371
 8 N534MQ    364
 9 N542MQ    363
10 N531MQ    349
# ... with 712 more rows
```
…
